%YAML 1.1
%TAG !u! tag:unity3d.com,2011:
--- !u!319 &31900000
AvatarMask:
  m_ObjectHideFlags: 0
  m_PrefabParentObject: {fileID: 0}
  m_PrefabInternal: {fileID: 0}
  m_Name: AM_Enemy_Fighter
  m_Mask: 00000000000000000100000000000000000000000000000000000000000000000000000000000000000000000000000000000000
  m_Elements:
  - m_Path: 
    m_Weight: 1
  - m_Path: Body
    m_Weight: 1
  - m_Path: Character1_Reference
    m_Weight: 0
  - m_Path: Character1_Reference/Character1_Hips
    m_Weight: 0
  - m_Path: Character1_Reference/Character1_Hips/Character1_LeftUpLeg
    m_Weight: 0
  - m_Path: Character1_Reference/Character1_Hips/Character1_LeftUpLeg/Character1_LeftLeg
    m_Weight: 0
  - m_Path: Character1_Reference/Character1_Hips/Character1_LeftUpLeg/Character1_LeftLeg/Character1_LeftFoot
    m_Weight: 0
  - m_Path: Character1_Reference/Character1_Hips/Character1_LeftUpLeg/Character1_LeftLeg/Character1_LeftFoot/Character1_LeftToeBase
    m_Weight: 0
  - m_Path: Character1_Reference/Character1_Hips/Character1_RightUpLeg
    m_Weight: 0
  - m_Path: Character1_Reference/Character1_Hips/Character1_RightUpLeg/Character1_RightLeg
    m_Weight: 0
  - m_Path: Character1_Reference/Character1_Hips/Character1_RightUpLeg/Character1_RightLeg/Character1_RightFoot
    m_Weight: 0
  - m_Path: Character1_Reference/Character1_Hips/Character1_RightUpLeg/Character1_RightLeg/Character1_RightFoot/Character1_RightToeBase
    m_Weight: 0
  - m_Path: Character1_Reference/Character1_Hips/Character1_Spine
    m_Weight: 0
  - m_Path: Character1_Reference/Character1_Hips/Character1_Spine/Character1_Spine1
    m_Weight: 0
  - m_Path: Character1_Reference/Character1_Hips/Character1_Spine/Character1_Spine1/Character1_Spine2
    m_Weight: 0
  - m_Path: Character1_Reference/Character1_Hips/Character1_Spine/Character1_Spine1/Character1_Spine2/Character1_LeftShoulder
    m_Weight: 0
  - m_Path: Character1_Reference/Character1_Hips/Character1_Spine/Character1_Spine1/Character1_Spine2/Character1_LeftShoulder/Character1_LeftArm
    m_Weight: 0
  - m_Path: Character1_Reference/Character1_Hips/Character1_Spine/Character1_Spine1/Character1_Spine2/Character1_LeftShoulder/Character1_LeftArm/Character1_LeftForeArm
    m_Weight: 0
  - m_Path: Character1_Reference/Character1_Hips/Character1_Spine/Character1_Spine1/Character1_Spine2/Character1_LeftShoulder/Character1_LeftArm/Character1_LeftForeArm/Character1_LeftHand
    m_Weight: 0
  - m_Path: Character1_Reference/Character1_Hips/Character1_Spine/Character1_Spine1/Character1_Spine2/Character1_LeftShoulder/Character1_LeftArm/Character1_LeftForeArm/Character1_LeftHand/Character1_LeftHandIndex1
    m_Weight: 0
  - m_Path: Character1_Reference/Character1_Hips/Character1_Spine/Character1_Spine1/Character1_Spine2/Character1_LeftShoulder/Character1_LeftArm/Character1_LeftForeArm/Character1_LeftHand/Character1_LeftHandIndex1/Character1_LeftHandIndex2
    m_Weight: 0
  - m_Path: Character1_Reference/Character1_Hips/Character1_Spine/Character1_Spine1/Character1_Spine2/Character1_LeftShoulder/Character1_LeftArm/Character1_LeftForeArm/Character1_LeftHand/Character1_LeftHandIndex1/Character1_LeftHandIndex2/Character1_LeftHandIndex3
    m_Weight: 0
  - m_Path: Character1_Reference/Character1_Hips/Character1_Spine/Character1_Spine1/Character1_Spine2/Character1_LeftShoulder/Character1_LeftArm/Character1_LeftForeArm/Character1_LeftHand/Character1_LeftHandIndex1/Character1_LeftHandIndex2/Character1_LeftHandIndex3/Character1_LeftHandIndex4
    m_Weight: 0
  - m_Path: Character1_Reference/Character1_Hips/Character1_Spine/Character1_Spine1/Character1_Spine2/Character1_LeftShoulder/Character1_LeftArm/Character1_LeftForeArm/Character1_LeftHand/Character1_LeftHandMiddle1
    m_Weight: 0
  - m_Path: Character1_Reference/Character1_Hips/Character1_Spine/Character1_Spine1/Character1_Spine2/Character1_LeftShoulder/Character1_LeftArm/Character1_LeftForeArm/Character1_LeftHand/Character1_LeftHandMiddle1/Character1_LeftHandMiddle2
    m_Weight: 0
  - m_Path: Character1_Reference/Character1_Hips/Character1_Spine/Character1_Spine1/Character1_Spine2/Character1_LeftShoulder/Character1_LeftArm/Character1_LeftForeArm/Character1_LeftHand/Character1_LeftHandMiddle1/Character1_LeftHandMiddle2/Character1_LeftHandMiddle3
    m_Weight: 0
  - m_Path: Character1_Reference/Character1_Hips/Character1_Spine/Character1_Spine1/Character1_Spine2/Character1_LeftShoulder/Character1_LeftArm/Character1_LeftForeArm/Character1_LeftHand/Character1_LeftHandMiddle1/Character1_LeftHandMiddle2/Character1_LeftHandMiddle3/Character1_LeftHandMiddle4
    m_Weight: 0
  - m_Path: Character1_Reference/Character1_Hips/Character1_Spine/Character1_Spine1/Character1_Spine2/Character1_LeftShoulder/Character1_LeftArm/Character1_LeftForeArm/Character1_LeftHand/Character1_LeftHandPinky1
    m_Weight: 0
  - m_Path: Character1_Reference/Character1_Hips/Character1_Spine/Character1_Spine1/Character1_Spine2/Character1_LeftShoulder/Character1_LeftArm/Character1_LeftForeArm/Character1_LeftHand/Character1_LeftHandPinky1/Character1_LeftHandPinky2
    m_Weight: 0
  - m_Path: Character1_Reference/Character1_Hips/Character1_Spine/Character1_Spine1/Character1_Spine2/Character1_LeftShoulder/Character1_LeftArm/Character1_LeftForeArm/Character1_LeftHand/Character1_LeftHandPinky1/Character1_LeftHandPinky2/Character1_LeftHandPinky3
    m_Weight: 0
  - m_Path: Character1_Reference/Character1_Hips/Character1_Spine/Character1_Spine1/Character1_Spine2/Character1_LeftShoulder/Character1_LeftArm/Character1_LeftForeArm/Character1_LeftHand/Character1_LeftHandPinky1/Character1_LeftHandPinky2/Character1_LeftHandPinky3/Character1_LeftHandPinky4
    m_Weight: 0
  - m_Path: Character1_Reference/Character1_Hips/Character1_Spine/Character1_Spine1/Character1_Spine2/Character1_LeftShoulder/Character1_LeftArm/Character1_LeftForeArm/Character1_LeftHand/Character1_LeftHandRing1
    m_Weight: 0
  - m_Path: Character1_Reference/Character1_Hips/Character1_Spine/Character1_Spine1/Character1_Spine2/Character1_LeftShoulder/Character1_LeftArm/Character1_LeftForeArm/Character1_LeftHand/Character1_LeftHandRing1/Character1_LeftHandRing2
    m_Weight: 0
  - m_Path: Character1_Reference/Character1_Hips/Character1_Spine/Character1_Spine1/Character1_Spine2/Character1_LeftShoulder/Character1_LeftArm/Character1_LeftForeArm/Character1_LeftHand/Character1_LeftHandRing1/Character1_LeftHandRing2/Character1_LeftHandRing3
    m_Weight: 0
  - m_Path: Character1_Reference/Character1_Hips/Character1_Spine/Character1_Spine1/Character1_Spine2/Character1_LeftShoulder/Character1_LeftArm/Character1_LeftForeArm/Character1_LeftHand/Character1_LeftHandRing1/Character1_LeftHandRing2/Character1_LeftHandRing3/Character1_LeftHandRing4
    m_Weight: 0
  - m_Path: Character1_Reference/Character1_Hips/Character1_Spine/Character1_Spine1/Character1_Spine2/Character1_LeftShoulder/Character1_LeftArm/Character1_LeftForeArm/Character1_LeftHand/Character1_LeftHandThumb1
    m_Weight: 0
  - m_Path: Character1_Reference/Character1_Hips/Character1_Spine/Character1_Spine1/Character1_Spine2/Character1_LeftShoulder/Character1_LeftArm/Character1_LeftForeArm/Character1_LeftHand/Character1_LeftHandThumb1/Character1_LeftHandThumb2
    m_Weight: 0
  - m_Path: Character1_Reference/Character1_Hips/Character1_Spine/Character1_Spine1/Character1_Spine2/Character1_LeftShoulder/Character1_LeftArm/Character1_LeftForeArm/Character1_LeftHand/Character1_LeftHandThumb1/Character1_LeftHandThumb2/Character1_LeftHandThumb3
    m_Weight: 0
  - m_Path: Character1_Reference/Character1_Hips/Character1_Spine/Character1_Spine1/Character1_Spine2/Character1_LeftShoulder/Character1_LeftArm/Character1_LeftForeArm/Character1_LeftHand/Character1_LeftHandThumb1/Character1_LeftHandThumb2/Character1_LeftHandThumb3/Character1_LeftHandThumb4
    m_Weight: 0
  - m_Path: Character1_Reference/Character1_Hips/Character1_Spine/Character1_Spine1/Character1_Spine2/Character1_Neck
    m_Weight: 1
  - m_Path: Character1_Reference/Character1_Hips/Character1_Spine/Character1_Spine1/Character1_Spine2/Character1_Neck/Character1_Head
    m_Weight: 1
  - m_Path: Character1_Reference/Character1_Hips/Character1_Spine/Character1_Spine1/Character1_Spine2/Character1_Neck/Character1_Head/Character1_Jaw
    m_Weight: 1
  - m_Path: Character1_Reference/Character1_Hips/Character1_Spine/Character1_Spine1/Character1_Spine2/Character1_Neck/Character1_Head/Character1_Jaw/Jaw
    m_Weight: 1
  - m_Path: Character1_Reference/Character1_Hips/Character1_Spine/Character1_Spine1/Character1_Spine2/Character1_Neck/Character1_Head/Teeth1
    m_Weight: 1
  - m_Path: Character1_Reference/Character1_Hips/Character1_Spine/Character1_Spine1/Character1_Spine2/Character1_RightShoulder
    m_Weight: 0
  - m_Path: Character1_Reference/Character1_Hips/Character1_Spine/Character1_Spine1/Character1_Spine2/Character1_RightShoulder/Character1_RightArm
    m_Weight: 0
  - m_Path: Character1_Reference/Character1_Hips/Character1_Spine/Character1_Spine1/Character1_Spine2/Character1_RightShoulder/Character1_RightArm/Character1_RightForeArm
    m_Weight: 0
  - m_Path: Character1_Reference/Character1_Hips/Character1_Spine/Character1_Spine1/Character1_Spine2/Character1_RightShoulder/Character1_RightArm/Character1_RightForeArm/Character1_RightHand
    m_Weight: 0
  - m_Path: Character1_Reference/Character1_Hips/Character1_Spine/Character1_Spine1/Character1_Spine2/Character1_RightShoulder/Character1_RightArm/Character1_RightForeArm/Character1_RightHand/Character1_RightHandIndex1
    m_Weight: 0
  - m_Path: Character1_Reference/Character1_Hips/Character1_Spine/Character1_Spine1/Character1_Spine2/Character1_RightShoulder/Character1_RightArm/Character1_RightForeArm/Character1_RightHand/Character1_RightHandIndex1/Character1_RightHandIndex2
    m_Weight: 0
  - m_Path: Character1_Reference/Character1_Hips/Character1_Spine/Character1_Spine1/Character1_Spine2/Character1_RightShoulder/Character1_RightArm/Character1_RightForeArm/Character1_RightHand/Character1_RightHandIndex1/Character1_RightHandIndex2/Character1_RightHandIndex3
    m_Weight: 0
  - m_Path: Character1_Reference/Character1_Hips/Character1_Spine/Character1_Spine1/Character1_Spine2/Character1_RightShoulder/Character1_RightArm/Character1_RightForeArm/Character1_RightHand/Character1_RightHandIndex1/Character1_RightHandIndex2/Character1_RightHandIndex3/Character1_RightHandIndex4
    m_Weight: 0
  - m_Path: Character1_Reference/Character1_Hips/Character1_Spine/Character1_Spine1/Character1_Spine2/Character1_RightShoulder/Character1_RightArm/Character1_RightForeArm/Character1_RightHand/Character1_RightHandMiddle1
    m_Weight: 0
  - m_Path: Character1_Reference/Character1_Hips/Character1_Spine/Character1_Spine1/Character1_Spine2/Character1_RightShoulder/Character1_RightArm/Character1_RightForeArm/Character1_RightHand/Character1_RightHandMiddle1/Character1_RightHandMiddle2
    m_Weight: 0
  - m_Path: Character1_Reference/Character1_Hips/Character1_Spine/Character1_Spine1/Character1_Spine2/Character1_RightShoulder/Character1_RightArm/Character1_RightForeArm/Character1_RightHand/Character1_RightHandMiddle1/Character1_RightHandMiddle2/Character1_RightHandMiddle3
    m_Weight: 0
  - m_Path: Character1_Reference/Character1_Hips/Character1_Spine/Character1_Spine1/Character1_Spine2/Character1_RightShoulder/Character1_RightArm/Character1_RightForeArm/Character1_RightHand/Character1_RightHandMiddle1/Character1_RightHandMiddle2/Character1_RightHandMiddle3/Character1_RightHandMiddle4
    m_Weight: 0
  - m_Path: Character1_Reference/Character1_Hips/Character1_Spine/Character1_Spine1/Character1_Spine2/Character1_RightShoulder/Character1_RightArm/Character1_RightForeArm/Character1_RightHand/Character1_RightHandPinky1
    m_Weight: 0
  - m_Path: Character1_Reference/Character1_Hips/Character1_Spine/Character1_Spine1/Character1_Spine2/Character1_RightShoulder/Character1_RightArm/Character1_RightForeArm/Character1_RightHand/Character1_RightHandPinky1/Character1_RightHandPinky2
    m_Weight: 0
  - m_Path: Character1_Reference/Character1_Hips/Character1_Spine/Character1_Spine1/Character1_Spine2/Character1_RightShoulder/Character1_RightArm/Character1_RightForeArm/Character1_RightHand/Character1_RightHandPinky1/Character1_RightHandPinky2/Character1_RightHandPinky3
    m_Weight: 0
  - m_Path: Character1_Reference/Character1_Hips/Character1_Spine/Character1_Spine1/Character1_Spine2/Character1_RightShoulder/Character1_RightArm/Character1_RightForeArm/Character1_RightHand/Character1_RightHandPinky1/Character1_RightHandPinky2/Character1_RightHandPinky3/Character1_RightHandPinky4
    m_Weight: 0
  - m_Path: Character1_Reference/Character1_Hips/Character1_Spine/Character1_Spine1/Character1_Spine2/Character1_RightShoulder/Character1_RightArm/Character1_RightForeArm/Character1_RightHand/Character1_RightHandRing1
    m_Weight: 0
  - m_Path: Character1_Reference/Character1_Hips/Character1_Spine/Character1_Spine1/Character1_Spine2/Character1_RightShoulder/Character1_RightArm/Character1_RightForeArm/Character1_RightHand/Character1_RightHandRing1/Character1_RightHandRing2
    m_Weight: 0
  - m_Path: Character1_Reference/Character1_Hips/Character1_Spine/Character1_Spine1/Character1_Spine2/Character1_RightShoulder/Character1_RightArm/Character1_RightForeArm/Character1_RightHand/Character1_RightHandRing1/Character1_RightHandRing2/Character1_RightHandRing3
    m_Weight: 0
  - m_Path: Character1_Reference/Character1_Hips/Character1_Spine/Character1_Spine1/Character1_Spine2/Character1_RightShoulder/Character1_RightArm/Character1_RightForeArm/Character1_RightHand/Character1_RightHandRing1/Character1_RightHandRing2/Character1_RightHandRing3/Character1_RightHandRing4
    m_Weight: 0
  - m_Path: Character1_Reference/Character1_Hips/Character1_Spine/Character1_Spine1/Character1_Spine2/Character1_RightShoulder/Character1_RightArm/Character1_RightForeArm/Character1_RightHand/Character1_RightHandThumb1
    m_Weight: 0
  - m_Path: Character1_Reference/Character1_Hips/Character1_Spine/Character1_Spine1/Character1_Spine2/Character1_RightShoulder/Character1_RightArm/Character1_RightForeArm/Character1_RightHand/Character1_RightHandThumb1/Character1_RightHandThumb2
    m_Weight: 0
  - m_Path: Character1_Reference/Character1_Hips/Character1_Spine/Character1_Spine1/Character1_Spine2/Character1_RightShoulder/Character1_RightArm/Character1_RightForeArm/Character1_RightHand/Character1_RightHandThumb1/Character1_RightHandThumb2/Character1_RightHandThumb3
    m_Weight: 0
  - m_Path: Character1_Reference/Character1_Hips/Character1_Spine/Character1_Spine1/Character1_Spine2/Character1_RightShoulder/Character1_RightArm/Character1_RightForeArm/Character1_RightHand/Character1_RightHandThumb1/Character1_RightHandThumb2/Character1_RightHandThumb3/Character1_RightHandThumb4
    m_Weight: 0
